==> 8
==> 8
==> 1
==> 0
==> 0
==> 0
==> 1.500000
==> 0.500000
==> 45
==> 4
==> 5
==> 1.000000+1.000000i
==> 0.500000-1.000000i
==> 0.000000
==> 3.000000+5.000000i
==> 1.000000+1.000000i
==> 4.000000+4.000000i
