==> -8
==> -2
==> -1
==> 0
==> 2
==> -2
==> -0.500000
==> -1.500000
==> -43
==> -2
==> -9223372036854775808
==> -1.000000+1.000000i
==> -0.500000-1.000000i
==> +2.000000i
==> -1.000000-3.000000i
==> -1.000000-1.000000i
==> -2.000000-2.000000i
