==> 0
==> 1
==> +inf
==> 0
==> 2
==> 2
==> -2
==> 2.000000
==> 2.750000
==> 1
==> 0
==> 1.000000
==> 0.500000
==> +1.000000i
==> -2.000000i
==> -1.000000
==> 0.300000-0.100000i
==> 0.500000-0.500000i
==> 1.000000
==> 2.400000+0.200000i
