==> abc
==> abc
==> (+ 2 3 4)
==> (+ 2 3 4)
==> (quote abc)
==> (quote abc)
==> (quote (+ 2 3 4))
==> (quote (+ 2 3 4))
==> (quote (quote (quote (quote (quote (quote (quote (quote (quote abc)))))))))
==> (quote (quote (quote (quote (quote (quote (quote (quote (quote abc)))))))))
==> (quote (quote (quote (quote (quote (quote (quote (quote (quote (+ 2 3 4))))))))))
==> (quote (quote (quote (quote (quote (quote (quote (quote (quote (+ 2 3 4))))))))))
