==> "predicat vrai"
==> "predicat faux"
==> "predicat vrai"
==> "predicat faux"
==> "predicat vrai"
==> "predicat faux"
==> "predicat vrai"
==> "predicat faux"
==> "predicat vrai"
==> "predicat faux"
==> "predicat vrai"
==> "predicat faux"
==> "predicat vrai"
==> "predicat faux"
==> "predicat vrai"
==> "predicat faux"
==> "predicat vrai"
==> "predicat faux"
